…
    library(datateachr)
    library(tidyverse)
    library(ggplot2)
    #Research topic 1: Distribution of Tree Species

    #Summarizing:

    #Summarizing: Compute the number of observations for the species_name categorical variable. This will give us an idea of the most common tree species in Vancouver.

    vancouver_trees %>%
      group_by(species_name) %>%
      tally() %>%
      arrange(-n)

    ## # A tibble: 283 × 2
    ##    species_name     n
    ##    <chr>        <int>
    ##  1 SERRULATA    13357
    ##  2 CERASIFERA   12031
    ##  3 PLATANOIDES  11963
    ##  4 RUBRUM        8467
    ##  5 AMERICANA     5515
    ##  6 SYLVATICA     5285
    ##  7 BETULUS       5195
    ##  8 EUCHLORA   X  4427
    ##  9 FREEMANI   X  4164
    ## 10 CAMPESTRE     3477
    ## # ℹ 273 more rows
…
    library(datateachr)
    library(tidyverse)
    library(ggplot2)

    #Research topic 3: Tree Distribution by Neighbourhood and Street
    #Question: Which neighbourhoods and streets in Vancouver have the highest concentration of trees?

    #Summarizing: Compute the proportion and counts of trees in each neighbourhood_name.

    vancouver_trees %>%
      count(neighbourhood_name) %>%
      mutate(proportion = n/sum(n))

    ## # A tibble: 22 × 3
    ##    neighbourhood_name           n proportion
    ##    <chr>                    <int>      <dbl>
    ##  1 ARBUTUS-RIDGE             5169     0.0353
    ##  2 DOWNTOWN                  5159     0.0352
    ##  3 DUNBAR-SOUTHLANDS         9415     0.0642
    ##  4 FAIRVIEW                  4002     0.0273
    ##  5 GRANDVIEW-WOODLAND        6703     0.0457
    ##  6 HASTINGS-SUNRISE         10547     0.0719
    ##  7 KENSINGTON-CEDAR COTTAGE 11042     0.0753
    ##  8 KERRISDALE                6936     0.0473
    ##  9 KILLARNEY                 6148     0.0419
    ## 10 KITSILANO                 8115     0.0554
    ## # ℹ 12 more rows
…
Let’s filter and select the data for this purpose:

    tree_species_distribution <- vancouver_trees %>%
      select(genus_name, species_name, neighbourhood_name) %>%
      filter(!is.na(genus_name) & !is.na(species_name) & !is.na(neighbourhood_name)) %>%
      group_by(genus_name, species_name, neighbourhood_name) %>%
      tally() %>%
      arrange(-n)
    print(tree_species_distribution)

    ## # A tibble: 3,713 × 4
    ## # Groups:   genus_name, species_name [361]
    ##    genus_name species_name neighbourhood_name           n
    ##    <chr>      <chr>        <chr>                    <int>
    ##  1 PRUNUS     CERASIFERA   VICTORIA-FRASERVIEW       1241
    ##  2 ACER       PLATANOIDES  KITSILANO                 1188
    ##  3 ACER       PLATANOIDES  DUNBAR-SOUTHLANDS         1165
    ##  4 ACER       PLATANOIDES  SHAUGHNESSY               1139
    ##  5 ACER       PLATANOIDES  KERRISDALE                1067
    ##  6 PRUNUS     CERASIFERA   DUNBAR-SOUTHLANDS         1061
    ##  7 ACER       RUBRUM       DOWNTOWN                  1019
    ##  8 PRUNUS     SERRULATA    KENSINGTON-CEDAR COTTAGE  1002
    ##  9 PRUNUS     SERRULATA    DUNBAR-SOUTHLANDS          994
    ## 10 PRUNUS     SERRULATA    RENFREW-COLLINGWOOD        980
    ## # ℹ 3,703 more rows
…
For this question, I need information about the presence of curbs, root
barriers, the tree’s diameter (size), and any available health
indicators. The relevant columns are **`curb`**, **`root_barrier`**,
**`diameter`**, and possibly **`genus_name`** or **`species_name`** as
an indirect health indicator (some species might be more resilient than
others).

    tree_infrastructure_relation <- vancouver_trees %>%
      select(curb, root_barrier, diameter, genus_name, species_name) %>%
      filter(!is.na(curb) & !is.na(root_barrier) & !is.na(diameter)) %>%
      arrange(diameter)
    print(tree_infrastructure_relation)

    ## # A tibble: 146,611 × 5
    ##    curb  root_barrier diameter genus_name  species_name 
    ##    <chr> <chr>           <dbl> <chr>       <chr>        
    ##  1 Y     N                   0 LIQUIDAMBAR STYRACIFLUA  
    ##  2 N     N                   0 ACER        CAMPESTRE    
    ##  3 Y     N                   0 PRUNUS      CERASIFERA   
    ##  4 Y     N                   0 PRUNUS      X YEDOENSIS  
    ##  5 N     N                   0 MAGNOLIA    XX           
    ##  6 Y     N                   0 AMELANCHIER GRANDIFLORA X
    ##  7 Y     N                   0 PARROTIA    PERSICA      
    ##  8 Y     N                   0 PRUNUS      CERASIFERA   
    ##  9 Y     N                   0 STYRAX      JAPONICA     
    ## 10 Y     N                   0 ACER        PLATANOIDES  
    ## # ℹ 146,601 more rows
…
